<svg xmlns="http://www.w3.org/2000/svg" viewBox="352 1326 61.9 44">
  <defs>
    <style>
      .cls-1 {
        fill: #bfc4c8;
      }
    </style>
  </defs>
  <g id="logoRSA" transform="translate(342.623 1319.27)">
    <g id="Group_472" data-name="Group 472" transform="translate(9.569 6.73)">
      <g id="Group_471" data-name="Group 471" transform="translate(0)">
        <path id="Path_542" data-name="Path 542" class="cls-1" d="M10.5,6.732q30.212,0,60.421,0c.2.007.405.022.609.045q-.033,15.252,0,30.5c-3.623.014-7.247.039-10.868-.014-1.138-2.546-2.336-5.068-3.543-7.583-1.253,2.491-2.343,5.064-3.565,7.572q-21.523-.015-43.047,0Q10.486,21.991,10.5,6.732Zm25.33,6.84a4.272,4.272,0,0,0-.168,6.467c1.852,1.588,4.408,1.713,6.545,2.716a2.463,2.463,0,0,1,1.685,2.2,2.227,2.227,0,0,1-1.648,2.222,8.716,8.716,0,0,1-6.914-1.183c-.421.753-.877,1.486-1.3,2.236a11.445,11.445,0,0,0,6.153,1.737,7.407,7.407,0,0,0,5.244-1.692,4.681,4.681,0,0,0,.086-6.743A12.211,12.211,0,0,0,40.628,19.4a7.312,7.312,0,0,1-2.834-1.313,1.824,1.824,0,0,1-.249-2.287,3.078,3.078,0,0,1,2.276-1.1,9.774,9.774,0,0,1,4.9.953c.367-.725.717-1.459,1.1-2.174a12.066,12.066,0,0,0-4.588-1.2A8.01,8.01,0,0,0,35.827,13.572Zm-17.95-1.049c0,5.671-.087,11.342-.072,17.013.877,0,1.834-.007,2.711,0,.043-4.828.01-9.657.017-14.486,1.407-.005,2.813,0,4.221-.005a3.462,3.462,0,0,1,2.49.883,2.507,2.507,0,0,1-.379,3.768c-1.124.763-2.544.619-3.833.624,1.735,3.072,3.5,6.127,5.233,9.2,1.042.019,2.087.022,3.129,0-1.347-2.4-2.719-4.792-4.071-7.19a5.7,5.7,0,0,0,2.281-1.594,4.989,4.989,0,0,0-.179-6.467,5.929,5.929,0,0,0-4.349-1.745Q21.478,12.515,17.877,12.523Zm30.5,17.055c1.086,0,2.175.005,3.261-.005,1.788-4.39,3.654-8.752,5.446-13.141,1.97,4.354,3.826,8.766,5.741,13.147,1.073,0,2.145,0,3.218,0-2.427-5.635-4.943-11.231-7.372-16.864-1.014-.045-2.027-.01-3.041-.021C53.2,18.316,50.8,23.951,48.377,29.577Z" transform="translate(-10.496 -6.73)"/>
      </g>
    </g>
    <g id="Group_474" data-name="Group 474" transform="translate(9.377 43.698)">
      <path id="Path_543" data-name="Path 543" class="cls-1" d="M10.066,222.795a3.442,3.442,0,0,1,2.873-.218c.151.274-.009.641.012.95-.675-.074-1.4-.432-2.049-.065a.765.765,0,0,0-.161,1.257c.578.494,1.366.653,1.946,1.147a1.993,1.993,0,0,1-.2,3.156,3.716,3.716,0,0,1-3.05.081,6.812,6.812,0,0,1,.153-.969,2.609,2.609,0,0,0,2.013.2.963.963,0,0,0,.458-1.486c-.7-.773-1.979-.809-2.5-1.779A1.877,1.877,0,0,1,10.066,222.795Z" transform="translate(-9.377 -222.369)"/>
      <path id="Path_544" data-name="Path 544" class="cls-1" d="M98.819,223.017a4.032,4.032,0,0,1,3.735-.351c-.019.338-.038.677-.05,1.017a2.842,2.842,0,0,0-2.952.067,2.7,2.7,0,0,0-.093,4.181,2.97,2.97,0,0,0,3.04.228c.043.326.05.657.063.986a4.468,4.468,0,0,1-3.524-.228A3.618,3.618,0,0,1,98.819,223.017Z" transform="translate(-82.294 -222.366)"/>
      <path id="Path_545" data-name="Path 545" class="cls-1" d="M55.626,223.128q1.933-.008,3.865,0c0,.314,0,.626-.005.939q-1.39.015-2.782,0c-.014.614-.012,1.226,0,1.84.831-.012,1.663,0,2.494-.012.007.319.01.638.012.958-.839,0-1.679-.014-2.518.012.007.691.009,1.382,0,2.073.934.034,1.867,0,2.8.021,0,.312,0,.626-.005.938-1.286.012-2.571.007-3.857,0C55.62,227.642,55.625,225.386,55.626,223.128Z" transform="translate(-47.686 -222.994)"/>
      <path id="Path_546" data-name="Path 546" class="cls-1" d="M152.491,223.112q.5,0,1,.005c.014,1.421-.015,2.842.012,4.264a1.7,1.7,0,0,0,1.02,1.615,1.666,1.666,0,0,0,1.673-.317,2.663,2.663,0,0,0,.517-1.816c.005-1.251-.009-2.5.005-3.753.345,0,.688.005,1.033.014-.01,1.426.009,2.851-.007,4.276a2.617,2.617,0,0,1-1.462,2.4,3.068,3.068,0,0,1-3.04-.422,2.717,2.717,0,0,1-.759-2C152.491,225.956,152.487,224.533,152.491,223.112Z" transform="translate(-127.924 -222.983)"/>
      <g id="Group_473" data-name="Group 473" transform="translate(34.576 0.117)">
        <path id="Path_547" data-name="Path 547" class="cls-1" d="M210.826,223.067a10.4,10.4,0,0,1,3.4.237,1.7,1.7,0,0,1,.426,2.769,2.825,2.825,0,0,1-.721.384,2.586,2.586,0,0,1,.613.866c.374.845.815,1.66,1.179,2.512-.384,0-.767.005-1.15.015-.484-.855-.75-1.816-1.251-2.659-.333-.463-.973-.283-1.457-.315,0,.979-.012,1.958.009,2.938-.347.024-.693.027-1.04.022C210.816,227.58,210.828,225.324,210.826,223.067Zm1.03,2.877a2.959,2.959,0,0,0,1.969-.367.916.916,0,0,0-.033-1.274c-.52-.48-1.289-.233-1.924-.3C211.856,224.652,211.863,225.3,211.856,225.944Z" transform="translate(-210.823 -223.046)"/>
      </g>
      <path id="Path_548" data-name="Path 548" class="cls-1" d="M263.827,223.138q.541-.005,1.083,0c0,2.256.009,4.512-.005,6.768-.359,0-.716,0-1.074,0C263.817,227.652,263.823,225.395,263.827,223.138Z" transform="translate(-220.15 -223.004)"/>
      <path id="Path_549" data-name="Path 549" class="cls-1" d="M289.1,223.122q2.6,0,5.207,0c0,.319-.005.636-.007.955-.693-.007-1.385,0-2.077,0,0,1.941.009,3.883-.007,5.825-.331,0-.663.005-.992.01-.021-1.946,0-3.892-.009-5.836-.711-.005-1.421.015-2.13-.019C289.093,223.742,289.1,223.432,289.1,223.122Z" transform="translate(-241.081 -222.991)"/>
      <path id="Path_550" data-name="Path 550" class="cls-1" d="M333.23,223.114c.4-.01.8-.01,1.195-.014.673.972,1.3,1.975,1.974,2.945.651-.972,1.294-1.948,1.917-2.938.41,0,.819,0,1.229.009-.874,1.332-1.766,2.65-2.66,3.967-.01.934,0,1.87-.009,2.8-.333,0-.666-.005-1-.007-.038-.946.048-1.9-.039-2.841C335,225.708,334.047,224.456,333.23,223.114Z" transform="translate(-277.645 -222.974)"/>
    </g>
  </g>
</svg>
