<?xml version="1.0" encoding="utf-8"?>
<!-- Generator: Adobe Illustrator 18.1.1, SVG Export Plug-In . SVG Version: 6.00 Build 0)  -->
<svg version="1.0" id="svg2" xmlns:svg="http://www.w3.org/2000/svg"
	 xmlns="http://www.w3.org/2000/svg" xmlns:xlink="http://www.w3.org/1999/xlink" x="0px" y="0px"
	 viewBox="-134.0882568 515.2320557 710.1765747 550.949585"
	 enable-background="new -134.0882568 515.2320557 710.1765747 550.949585" xml:space="preserve">
<g>
	<g>
		<g>
			<g>
				<path fill="#FBFBF9" d="M315.4529114,519.1000977c-33.710022,6.3800049-65.8800049,20.7999878-92.9700165,41.8599854
					c-1.2099915,1.6400146-2.7099915-0.0899658-4-0.6300049c-45.2599945-35.4099731-105.1699905-50.8499756-162-43.1699829
					c-39.3000031,5.0700073-77.0599976,21.2000122-107.9700012,45.9799805
					c-28.4000015,22.5900269-51.0299988,52.3800049-65.2099991,85.7800293
					c-17.6800079,41.3699951-21.9300079,88.2199707-12.5200043,132.1699829
					c7.4300003,34.8699951,23.6100006,67.7999878,46.6000061,95.039978
					c22.4299965,26.6900024,51.2999954,47.9800415,83.5099945,61.3700562
					c42.2299995,17.7099609,90.0500031,21.5099487,134.6199951,11.1099854
					c30.8800049-7.2999878,60.480011-21.0800171,85.1600037-41.1000366
					c15.0899963,11.3099976,31.1800079,21.3900146,48.5699921,28.7800293
					c35.6500244,15.5299683,75.4700012,21.1300049,114.0500183,16.4199829
					c37.3800049-4.4400024,73.5-18.8499756,103.7200012-41.2999878
					c28.8699646-21.2700195,52.3699646-49.7600098,67.7799988-82.1400146
					c16.8300171-35.0299683,23.8300171-74.6400146,20.4799805-113.3299561
					c-3.3099976-40.1100464-18.039978-79.1900024-42.0299683-111.4900513
					c-27.730011-37.6599731-67.730011-66.1599731-112.5300293-79.6699829
					C386.7728882,514.420105,350.3128967,512.5300903,315.4529114,519.1000977z M150.9129028,988.4000854
					c-0.0200043,5.8699951,0,11.7399902-0.0099945,17.6099854c-4.0100098-0.0099487-8.0200043-0.0199585-12.0200043,0.0400391
					c0.0299988,3.9699707,0.0299988,7.9500122,0.0099945,11.9400024c4,0.0299683,8,0.0199585,12.0100098,0.0199585
					c0.019989,9.6900024-0.0200043,19.3900757,0.0099945,29.0800171c0.2299957,4.8800049,1.3800049,10.0600586,4.8099976,13.7399902
					c2.2899933,2.5400391,5.5200043,3.9899902,8.8200073,4.7099609c7.7599945,1.3200684,16.0699921,0.3500977,22.8600006-3.8199463
					c-1.1700134-3.8399658-2.480011-7.6199951-3.8300018-11.3900146c-4.5200043,2.3200684-9.8300018,4.3599854-14.9199982,2.7800293
					c-3.3100128-1.1199951-4.6500092-4.8900146-4.5100098-8.0999756c-0.0200043-9,0-18,0-27.000061
					c6.9100037,0,13.8200073,0,20.7400055,0c-0.0100098-4-0.0100098-8,0-12c-6.9199982,0-13.8300018,0-20.7400055,0
					c-0.0099945-5.8699951,0-11.7399902-0.0099945-17.6099854
					C159.7229004,988.3900757,155.3128967,988.3900757,150.9129028,988.4000854z M-84.4870987,1012.8001099
					c0-2.2700195,0.0100021-4.5300293,0.0100021-6.7900391c-4.2700043,0-8.5500031-0.0099487-12.8100052,0
					c0.0100021,19.539978-0.0199966,39.0800171,0.0100021,58.6200562c4.3799973-0.0100098,8.7700043,0.0100098,13.1600037-0.0300293
					c0.2099991-12.1700439-0.4400024-24.3900146,0.3199997-36.5300293
					c0.9199982-9.6999512,13.5599976-14.3799438,21.1299973-8.9299927
					c4.3300018,3.1500244,4.8800011,8.8800659,5.1599998,13.8099976
					c0.0999985,10.5600586-0.0400009,21.1300049,0.0600014,31.7000732c4.3099976-0.0400391,8.6299973-0.0400391,12.9399986,0
					c0.0699997-10.9000244,0.0100021-21.7900391,0.0200005-32.6800537c0.0200005-3.0300293,0.6699982-6.1099854,2.1899986-8.75
					c3.8899994-6.7999878,14.2200012-8.460022,20.2300014-3.5599976c3.4400005,3.0700073,4.2000008,7.9500122,4.2299995,12.3400269
					c0,10.8599854,0.0100002,21.7299805,0,32.5899658c4.3800001,0.0500488,8.7700005,0.0300293,13.1599998,0.0400391
					c0.02-12.5300293,0.0099998-25.0500488,0.0099998-37.5700684c0.0600004-6.9499512-2.9599996-14.1399536-8.71-18.2299805
					c-10.6199999-7.1900024-27.5-5.5700073-34.7400017,5.7000122
					C-55.7271004,1002.3001099-76.0170975,1000.7501221-84.4870987,1012.8001099z M85.2528992,1011.7901001
					c-6.0899963,6.539978-5.9000015,18.5199585,1.6700058,23.8899536
					c7.0799942,5.3800049,16.3699951,4.8900146,24.6299973,6.8500977c2.6299973,0.5999756,6.159996,2.3099365,5.7099991,5.5599365
					c-0.2099991,3.5400391-3.9300003,5.0899658-6.9000015,5.7900391c-8.8399963,1.6300049-18.3499985-0.25-25.6199951-5.6099854
					c-2.0600052,3.4399414-4.25,6.8199463-6.1600037,10.3599854c9.8700027,7.039917,22.6200027,8.6599121,34.3700027,6.7299805
					c6.0199966-1.1500244,12.1100006-4.0400391,15.4699936-9.3800049
					c4.0400085-6.5200195,3.2900085-16.2399902-2.9699936-21.1300049c-6.2000046-4.8000488-14.3100052-5.4599609-21.8000031-6.5
					c-2.8899994-0.4599609-6.3300018-0.8000488-8.2600021-3.2900391c-2.0699997-3.249939,1.0100021-7.0799561,4.2400055-7.9099731
					c8.2199936-2.1599731,16.9599991,0.2999878,24.2599945,4.2399902c1.8800049-3.5499878,3.7700043-7.0899658,5.6999969-10.6099854
					c-8.2699966-5.2999878-18.4199905-6.6500244-28.0599976-6.039978
					C95.582901,1005.2700806,89.3528976,1007.2200928,85.2528992,1011.7901001z M285.9829102,1005.6300659
					c-3.4900208,1.2000122-6.1800232,3.8300171-8.4700012,6.6300049c0-2.0899658,0-4.1699829,0.0099792-6.25
					c-4.3399963,0-8.6699829,0-13,0c0.0200195,19.5499878-0.0499878,39.0900269,0.0299988,58.6400757
					c4.3100281-0.0400391,8.6200256-0.0400391,12.9400024,0c0.0800171-10.8601074,0-21.7200928,0.0299988-32.5800781
					c0.1400146-4.6699219,1.0100098-10.0499878,5.0700073-12.9699707
					c4.5500183-3.1500244,10.4700012-2.2299805,15.3999939-0.5599976c1.2000122-4.1900024,2.730011-8.2800293,3.980011-12.4500122
					C296.8128967,1004.5700684,291.1729126,1003.8601074,285.9829102,1005.6300659z M315.3529053,1011.8001099
					c-11.3699951,9.6400146-13.0800171,27.6699829-5.8000183,40.2399292c5.3700256,9.3699951,16.4000244,14.5200195,27.0300293,14
					c7.6599731,0.4700928,15.3199768-2.0499268,21.2299805-6.9299316
					c-2.0499878-3.5600586-4.2299805-7.0300293-6.2600098-10.5899658
					c-4.7599792,3.1099854-10.2399902,5.6099854-16.0599976,5.1599121c-6.8199768,0.0900879-13.25-4.6300049-15.4599915-11.039917
					c-2.0799866-6.1500244-1.6000061-13.4300537,2.25-18.7900391c2.9400024-4.3300171,8.1600037-6.6500244,13.2799988-6.9700317
					c5.7700195-0.2099609,11.2200012,2.2200317,15.9599915,5.3300171c1.7600098-3.6599731,5.0600281-6.9899902,5.8000183-10.8900146
					c-4.2099915-3.4799805-9.4200134-5.7599487-14.8500061-6.3699951
					C333.0429077,1003.710083,322.6929016,1005.3701172,315.3529053,1011.8001099z M461.4628906,1005.8701172
					c-3.3099976,1.289978-5.8599854,3.8800049-7.9599915,6.6599731c0.0100098-2.1799927,0.0100098-4.3499756,0.019989-6.5200195
					c-4.2799988,0-8.5499878-0.0099487-12.8199768,0.0100098c0.0299988,19.539978-0.0100098,39.0800171,0.019989,58.6100464
					c4.25-0.0100098,8.5100098-0.0200195,12.7799988,0.0100098c0.0700073-10.5500488-0.0400085-21.1000977,0.0400085-31.6400146
					c0.2299805-4.710083,0.6499939-10.1300049,4.5299988-13.4000244c4.5-3.6799927,10.8699951-2.8699951,15.9799805-1.0900269
					c1.230011-4.1699829,2.7700195-8.2399902,3.9300232-12.4400024
					C472.6429138,1004.5300903,466.7629089,1003.8200684,461.4628906,1005.8701172z"/>
			</g>
		</g>
		<g>
			<path fill="#F79E1F" d="M315.4529114,519.1000977c34.8599854-6.5700073,71.3199768-4.6799927,105.2599792,5.6799927
				c44.8000183,13.5100098,84.8000183,42.0100098,112.5300293,79.6699829
				c23.9899902,32.3000488,38.7199707,71.3800049,42.0299683,111.4900513
				c3.3500366,38.6899414-3.6499634,78.2999878-20.4799805,113.3299561
				c-15.4100342,32.3800049-38.9100342,60.8699951-67.7799988,82.1400146
				c-30.2200012,22.4500122-66.3399963,36.8599854-103.7200012,41.2999878
				c-38.5800171,4.710022-78.3999939-0.8900146-114.0500183-16.4199829
				c-17.3899841-7.3900146-33.4799957-17.4700317-48.5699921-28.7800293l0.3899994-0.3499756
				c20.9700012-16.9799805,39.3200073-37.3400269,52.9599915-60.6799927
				c17.3500061-29.0700073,27.7000122-62.2600098,30.0299988-96.0300293
				c2.9300232-39.6699829-5.2199707-80.1399536-23.4799805-115.5
				c-14.4299927-28.0899658-34.9100037-53.0799561-59.7799988-72.5599976
				c-0.780014-0.6799927-1.5500031-1.3699951-2.3100128-2.0599976c1.2900085,0.5400391,2.7900085,2.2700195,4,0.6300049
				C249.5729065,539.9000854,281.7428894,525.4801025,315.4529114,519.1000977z"/>
		</g>
		<g>
			<path fill="#EB1D24" d="M56.4829025,517.1600952c56.8300018-7.6799927,116.7399979,7.7600098,162,43.1699829
				c0.7600098,0.6900024,1.5299988,1.3800049,2.3100128,2.0599976c-5.1100006,4.5300293-10.3800049,8.8800049-15.3500061,13.5599976
				c-25.2299957,23.9900513-44.6499939,54.0400391-56.0299988,86.9500122
				c-14.9499969,42.710022-16.0899963,90.1000366-3.3200073,133.5
				c12.6100006,43.5700073,39.3600006,82.7399902,74.9700012,110.7600098l-0.3899994,0.3499756
				c-24.6799927,20.0200195-54.2799988,33.8000488-85.1600037,41.1000366
				c-44.5699921,10.3999634-92.3899918,6.5999756-134.6199951-11.1099854
				c-32.2099991-13.3900146-61.0800018-34.6800537-83.5099945-61.3700562
				c-22.9900055-27.2399902-39.1700058-60.1699829-46.6000061-95.039978
				c-9.4100037-43.9500122-5.1600037-90.7999878,12.5200043-132.1699829
				c14.1800003-33.4000244,36.8099976-63.1900024,65.2099991-85.7800293
				C-20.5770988,538.3601074,17.1829014,522.2301025,56.4829025,517.1600952z"/>
		</g>
		<g>
			<path fill="#F26122" d="M220.7929077,562.3900757c24.8699951,19.4800415,45.3500061,44.4700317,59.7799988,72.5599976
				c18.2600098,35.3600464,26.4100037,75.8300171,23.4799805,115.5
				c-2.3299866,33.7700195-12.6799927,66.960022-30.0299988,96.0300293
				c-13.6399841,23.3399658-31.9899902,43.7000122-52.9599915,60.6799927
				c-35.6100006-28.0200195-62.3600006-67.1900024-74.9700012-110.7600098
				c-12.769989-43.3999634-11.6299896-90.789978,3.3200073-133.5
				c11.3800049-32.9099731,30.8000031-62.9599609,56.0299988-86.9500122
				C210.4129028,571.2700806,215.6829071,566.920105,220.7929077,562.3900757z"/>
		</g>
		<g>
			<path fill="#050708" d="M150.9129028,988.4000854c4.3999939-0.0100098,8.8099976-0.0100098,13.2200012,0
				c0.0099945,5.8699951,0,11.7399902,0.0099945,17.6099854c6.9100037,0,13.8200073,0,20.7400055,0c-0.0100098,4-0.0100098,8,0,12
				c-6.9199982,0-13.8300018,0-20.7400055,0c0,9.000061-0.0200043,18.000061,0,27.000061
				c-0.1399994,3.2099609,1.1999969,6.9799805,4.5100098,8.0999756c5.0899963,1.5799561,10.3999939-0.4599609,14.9199982-2.7800293
				c1.3499908,3.7700195,2.6599884,7.5500488,3.8300018,11.3900146c-6.7900085,4.1700439-15.1000061,5.1400146-22.8600006,3.8199463
				c-3.3000031-0.7199707-6.530014-2.1699219-8.8200073-4.7099609c-3.4299927-3.6799316-4.5800018-8.8599854-4.8099976-13.7399902
				c-0.0299988-9.6899414,0.0099945-19.3900146-0.0099945-29.0800171c-4.0100098,0-8.0100098,0.0100098-12.0100098-0.0199585
				c0.0200043-3.9899902,0.0200043-7.9700317-0.0099945-11.9400024c4-0.0599976,8.0099945-0.0499878,12.0200043-0.0400391
				C150.9129028,1000.1400757,150.8928986,994.2700806,150.9129028,988.4000854z"/>
			<path fill="#050708" d="M-84.4870987,1012.8001099c8.4700012-12.0499878,28.7599983-10.5,36.3699989,1.7299805
				c7.2400017-11.2700195,24.1200008-12.8900146,34.7400017-5.7000122c5.7500005,4.0900269,8.7700005,11.2800293,8.71,18.2299805
				c0,12.5200195,0.0100002,25.0400391-0.0099998,37.5700684c-4.3899999-0.0100098-8.7800007,0.0100098-13.1599998-0.0400391
				c0.0100002-10.8599854,0-21.7299805,0-32.5899658c-0.0299988-4.3900146-0.789999-9.2700195-4.2299995-12.3400269
				c-6.0100002-4.9000244-16.3400021-3.2399902-20.2300014,3.5599976c-1.5200005,2.6400146-2.1699982,5.7199707-2.1899986,8.75
				c-0.0099983,10.8900146,0.0499992,21.7800293-0.0200005,32.6800537c-4.3100014-0.0400391-8.6300011-0.0400391-12.9399986,0
				c-0.1000023-10.5700684,0.0399971-21.1400146-0.0600014-31.7000732
				c-0.2799988-4.9299316-0.829998-10.6599731-5.1599998-13.8099976
				c-7.5699997-5.4499512-20.2099991-0.7699585-21.1299973,8.9299927
				c-0.7600021,12.1400146-0.1100006,24.3599854-0.3199997,36.5300293
				c-4.3899994,0.0400391-8.7800064,0.0200195-13.1600037,0.0300293c-0.0299988-19.5400391,0-39.0800781-0.0100021-58.6200562
				c4.2600021-0.0099487,8.5400009,0,12.8100052,0C-84.4770966,1008.2700806-84.4870987,1010.5300903-84.4870987,1012.8001099z"/>
			<path fill="#050708" d="M85.2528992,1011.7901001c4.0999985-4.5700073,10.3300018-6.5200195,16.2799988-7.0499878
				c9.640007-0.6100464,19.7900009,0.7399902,28.0599976,6.039978c-1.9299927,3.5200195-3.8199921,7.0599976-5.6999969,10.6099854
				c-7.2999954-3.9400024-16.0400009-6.3999634-24.2599945-4.2399902c-3.2300034,0.8300171-6.3100052,4.6600342-4.2400055,7.9099731
				c1.9300003,2.4899902,5.3700027,2.8300781,8.2600021,3.2900391c7.4899979,1.0400391,15.5999985,1.6999512,21.8000031,6.5
				c6.2600021,4.8900146,7.0100021,14.6099854,2.9699936,21.1300049c-3.359993,5.3399658-9.4499969,8.2299805-15.4699936,9.3800049
				c-11.75,1.9299316-24.5,0.3099365-34.3700027-6.7299805c1.9100037-3.5400391,4.0999985-6.9200439,6.1600037-10.3599854
				c7.2699966,5.3599854,16.7799988,7.2399902,25.6199951,5.6099854c2.9700012-0.7000732,6.6900024-2.25,6.9000015-5.7900391
				c0.4499969-3.25-3.0800018-4.9599609-5.7099991-5.5599365c-8.2600021-1.960083-17.5500031-1.4700928-24.6299973-6.8500977
				C79.3528976,1030.3100586,79.1629028,1018.3300781,85.2528992,1011.7901001z"/>
			<path fill="#050708" d="M285.9829102,1005.6300659c5.1900024-1.7699585,10.8299866-1.0599976,15.9899902,0.460022
				c-1.25,4.1699829-2.7799988,8.2600098-3.980011,12.4500122c-4.9299927-1.6699829-10.8499756-2.5900269-15.3999939,0.5599976
				c-4.0599976,2.9199829-4.9299927,8.3000488-5.0700073,12.9699707
				c-0.0299988,10.8599854,0.0500183,21.7199707-0.0299988,32.5800781c-4.3199768-0.0400391-8.6299744-0.0400391-12.9400024,0
				c-0.0799866-19.5500488-0.0099792-39.0900879-0.0299988-58.6400757c4.3300171,0,8.6600037,0,13,0
				c-0.0099792,2.0800171-0.0099792,4.1600342-0.0099792,6.25
				C279.802887,1009.460083,282.4928894,1006.8300781,285.9829102,1005.6300659z"/>
			<path fill="#050708" d="M315.3529053,1011.8001099c7.3399963-6.4299927,17.6900024-8.0900269,27.1199951-6.8500366
				c5.4299927,0.6100464,10.6400146,2.8900146,14.8500061,6.3699951c-0.7399902,3.9000244-4.0400085,7.2300415-5.8000183,10.8900146
				c-4.7399902-3.1099854-10.1899719-5.539978-15.9599915-5.3300171
				c-5.1199951,0.3200073-10.3399963,2.6400146-13.2799988,6.9700317c-3.8500061,5.3599854-4.3299866,12.6400146-2.25,18.7900391
				c2.2099915,6.4099121,8.6400146,11.1300049,15.4599915,11.039917c5.8200073,0.4500732,11.3000183-2.0499268,16.0599976-5.1599121
				c2.0300293,3.5599365,4.210022,7.0299072,6.2600098,10.5899658c-5.9100037,4.8800049-13.5700073,7.4000244-21.2299805,6.9299316
				c-10.6300049,0.5200195-21.6600037-4.6300049-27.0300293-14
				C302.2728882,1039.4700928,303.9829102,1021.4401245,315.3529053,1011.8001099z"/>
			<path fill="#050708" d="M461.4628906,1005.8701172c5.3000183-2.0500488,11.1800232-1.3400269,16.5200195,0.1999512
				c-1.1600037,4.2000122-2.7000122,8.2700195-3.9300232,12.4400024
				c-5.1099854-1.7799683-11.4799805-2.5899658-15.9799805,1.0900269
				c-3.8800049,3.2700195-4.3000183,8.6899414-4.5299988,13.4000244
				c-0.0800171,10.539917,0.0299988,21.0899658-0.0400085,31.6400146c-4.269989-0.0300293-8.5299988-0.0200195-12.7799988-0.0100098
				c-0.0299988-19.5300293,0.0100098-39.0700684-0.019989-58.6100464c4.269989-0.0199585,8.539978-0.0100098,12.8199768-0.0100098
				c-0.0099792,2.1700439-0.0099792,4.3400269-0.019989,6.5200195
				C455.6029053,1009.7501221,458.1528931,1007.1600952,461.4628906,1005.8701172z"/>
		</g>
	</g>
	<path fill="#050708" d="M66.8928986,1064.5800781c-0.0299683-19.5200195,0-39.0500488-0.0100098-58.5700073
		c-4.409977,0-8.7999916-0.0100098-13.200016,0.0100098c0.0100098,2.1999512,0.0400391,4.4199829,0.1700439,6.6300049
		c-8.6600342-10.5500488-25.6100445-10.2300415-35.9100342-2.3200073c-15.1099854,11.2099609-15.75,36.5100098-1.6199951,48.7700195
		c10.1500244,9.1300049,28.2000103,10.0200195,37.4500122-0.8699951c-0.0599976,2.1199951-0.0700073,4.2600098-0.0599976,6.4000244
		C58.1029167,1064.6201172,62.4928703,1064.6501465,66.8928986,1064.5800781z M47.1029167,1050.7000732
		c-8.2399902,5.9699707-21.7100201,3-25.6199932-6.7299805c-5.0900269-10.0999756,0.289978-24.8000488,12.1099834-26.750061
		c5.6400146-1.1900024,11.9299927,0.6100464,15.8599854,4.9100342
		C56.922924,1029.9500732,56.0228996,1044.3300781,47.1029167,1050.7000732z"/>
	<path fill="#050708" d="M244.2729034,1013.3100586c-10.4299927-12.1599731-31.5700073-11.4000244-41.9299927,0.460022
		c-8.4799805,9.6900024-9.5300293,24.460022-4.6000366,36.0499878c4.5100098,10.2700195,15.710022,16.75,26.8300171,16.2199707
		c8.8500366,0.4500732,17.7900391-2.4099121,24.5599976-8.1499023c-2.1900024-3.2399902-4.2799683-6.5300293-6.4299927-9.7900391
		c-7.1599731,5.4899902-17.2700195,8.2600098-25.7799683,4.3599854c-4.7900391-2.1999512-7.5400391-7.1099854-8.5599976-12.0999756
		c14.4499512,0.0100098,28.8999634,0.0100098,43.3399658,0
		C252.5728912,1030.9100342,250.8629303,1020.5400391,244.2729034,1013.3100586z M208.4528961,1030.0001221
		c0.8500366-2.9799805,1.710022-6.0600586,3.710022-8.500061c4.4099731-5.6199951,13.0899658-6.6300049,19.1400146-3.25
		c4.1799927,2.4299927,6.1699829,7.1799927,7.0499878,11.7300415
		C228.3828888,1030.0400391,218.4229279,1030.0001221,208.4528961,1030.0001221z"/>
	<path fill="#050708" d="M424.3428955,1006.0200806c-4.4100342-0.0200195-8.7999878-0.0200195-13.1900024-0.0100098
		c0,2.1699829,0.0100098,4.3299561,0.0899658,6.5100098c-8.789978-10.5500488-25.8899536-10.0400391-36.1299438-1.9200439
		c-14.8800049,11.460022-15.2800293,36.710022-0.9300537,48.7600708c10.1100464,8.8399658,28,9.7299805,37.0300293-1.1400146
		c-0.0499878,2.1300049-0.0700073,4.25-0.0499878,6.4000244c4.3999634,0.0100098,8.789978,0.0200195,13.2000122-0.0300293
		C424.3029175,1045.0600586,424.3428955,1025.5400391,424.3428955,1006.0200806z M405.572876,1049.9400635
		c-7.539978,6.460083-20.8499756,4.5999756-25.6799927-4.3199463c-6.5499878-10.25-1.0899658-26.7900391,11.7200317-28.4800415
		c5.3699951-0.960022,11.2599487,0.75,15.1399536,4.6300049
		C414.0529175,1029.3100586,413.7728882,1043.1501465,405.572876,1049.9400635z"/>
	<path fill="#050708" d="M541.8728638,982.6600342c-4.3199463-0.0099487-8.6300049-0.0099487-12.9400024-0.0099487
		c-0.039978,10.0099487-0.0699463,20.0199585,0.0200195,30.0299683
		c-8.4899902-10.4500122-25.1300049-10.2700195-35.4299927-2.6900024
		c-15.6900024,11.1600342-16.289978,37.3800659-1.5499878,49.5599976c10.2399902,8.710083,28,9.4500732,36.9799805-1.4799805
		c-0.0599976,2.1700439-0.0499878,4.3599854-0.0499878,6.5400391c4.3200073,0.0200195,8.6500244,0.0300293,12.9799805-0.0200195
		C541.862915,1037.2800293,541.8928833,1009.9700317,541.8728638,982.6600342z M523.9628906,1049.3300781
		c-7.039978,6.6900635-19.9099731,5.75-25.539978-2.2800293c-7.1199951-9.4599609-3.5700073-26.1099854,8.5899658-29.3800049
		c6.4400024-2.0899658,14.1400146-0.0100098,18.4100342,5.3300171
		C531.4829102,1030.5201416,530.9229126,1042.5700684,523.9628906,1049.3300781z"/>
</g>
</svg>
