<svg xmlns="http://www.w3.org/2000/svg" viewBox="-1021 -4459 20 20">
  <defs>
    <style>
      .cls-1 {
        fill: #bfc4c8;
      }
    </style>
  </defs>
  <path id="message" class="cls-1" d="M20,2H4A2,2,0,0,0,2,4V22l4-4H20a2,2,0,0,0,2-2V4A2,2,0,0,0,20,2Z" transform="translate(-1023 -4461)"/>
</svg>
