<svg xmlns="http://www.w3.org/2000/svg" viewBox="790 -4458 18 18">
  <defs>
    <style>
      .cls-1 {
        fill: #bfc4c8;
      }
    </style>
  </defs>
  <path id="phone_1_" data-name="phone (1)" class="cls-1" d="M6.62,10.79a15.1,15.1,0,0,0,6.59,6.59l2.2-2.2a1,1,0,0,1,1.02-.25A11.36,11.36,0,0,0,20,15.5a1,1,0,0,1,1,1V20a1,1,0,0,1-1,1A17,17,0,0,1,3,4,1,1,0,0,1,4,3H7.5a1,1,0,0,1,1,1,11.36,11.36,0,0,0,.57,3.57,1,1,0,0,1-.25,1.02Z" transform="translate(787 -4461)"/>
</svg>
