<svg xmlns="http://www.w3.org/2000/svg" viewBox="969 -4459 16 21">
  <defs>
    <style>
      .cls-1 {
        fill: #bfc4c8;
      }
    </style>
  </defs>
  <path id="lock-plus" class="cls-1" d="M18,8H17V6A5,5,0,1,0,7,6V8H6a2,2,0,0,0-2,2V20a2,2,0,0,0,2,2H18a2,2,0,0,0,2-2V10a2,2,0,0,0-2-2M8.9,6a3.1,3.1,0,0,1,6.2,0V8H8.9V6M16,16H13v3H11V16H8V14h3V11h2v3h3Z" transform="translate(965 -4460)"/>
</svg>
