<svg xmlns="http://www.w3.org/2000/svg" xmlns:xlink="http://www.w3.org/1999/xlink" viewBox="2799 -4527 152 152">
  <defs>
    <style>
      .cls-1 {
      fill: #1daafc;
      }

      .cls-2, .cls-3 {
      fill: #fff;
      }

      .cls-2 {
      opacity: 0.5;
      }

      .cls-4 {
      filter: url(#Path_669);
      }
    </style>
    <filter id="Path_669" x="2799" y="-4527" width="152" height="152" filterUnits="userSpaceOnUse">
      <feOffset dy="6" input="SourceAlpha"/>
      <feGaussianBlur stdDeviation="8" result="blur"/>
      <feFlood flood-color="#1daafc" flood-opacity="0.702"/>
      <feComposite operator="in" in2="blur"/>
      <feComposite in="SourceGraphic"/>
    </filter>
  </defs>
  <g id="Group_2827" data-name="Group 2827" transform="translate(2802.122 -4530.381)">
    <g id="Group_2826" data-name="Group 2826">
      <g id="Group_2451" data-name="Group 2451">
        <g id="Group_2825" data-name="Group 2825">
          <g class="cls-4" transform="matrix(1, 0, 0, 1, -2802.12, 4530.38)">
            <path id="Path_669-2" data-name="Path 669" class="cls-1" d="M114.9,115.4c-13.3,13.3-70.776,13.307-84.083,0s-13.2-70.886,0-84.083,70.781-13.3,84.083,0S128.205,102.1,114.9,115.4Z" transform="translate(2802.12 -4530.38)"/>
          </g>
        </g>
      </g>
    </g>
    <g opacity="0.5">
      <path fill="#FFFFFF" d="M50.298214,54.938942c-4.0464211,6.0744247,0.7929611,18.8249435,11.4949951,29.5271149
			c10.7021751,10.702034,23.4526939,15.5414124,29.5271111,11.4949875c0.2256012-0.1084213,0.4401932-0.2409897,0.623436-0.4242401
			l4.0884933-4.0884857c1.2491302-1.2492752,1.097229-3.4454269-0.3376923-4.8803406l-7.3049011-7.3050461
			c-1.4349213-1.4349136-3.6310654-1.5868149-4.8803406-0.3375397l-4.7405853,4.7405853
			c-0.4756241,0.4756241-1.2717209,0.5168533-1.9033432,0.0786362c-2.6387329-1.8303528-5.2778854-4.0212708-7.8036804-6.5470581
			c-2.5257874-2.525795-4.7167053-5.1649475-6.5470619-7.8036804c-0.4382133-0.6316223-0.3969879-1.4277191,0.07864-1.9033432
			l4.7405777-4.7405891c1.2492828-1.249279,1.097374-3.4454231-0.3375397-4.8803444l-7.3050461-7.3049011
			c-1.4349174-1.4349174-3.6310654-1.5868187-4.8803406-0.3376846l-4.0884857,4.0884895
			C50.5392036,54.4987526,50.4066391,54.7133408,50.298214,54.938942z"/>
    </g>
    <g>
      <path fill="#FFFFFF" d="M88.3896713,79.2629166c-1.4349213-1.4349213-3.631073-1.5867844-4.880394-0.3375473l-1.3072433,1.307251
			l12.5229492,12.5229492l1.3072433-1.3072433c1.2491226-1.2492828,1.0972519-3.4454422-0.3376694-4.8803558L88.3896713,79.2629166z
			"/>
      <path fill="#FFFFFF" d="M54.8109245,50.2270203l-1.3072433,1.3072433l12.5229149,12.5229111l1.3072433-1.3072433
			c1.2492828-1.2492828,1.0974121-3.4454384-0.3375092-4.8803596l-7.3050499-7.3048897
			C58.2563591,49.1297607,56.0602074,48.9778976,54.8109245,50.2270203z"/>
    </g>
    <g opacity="0.5">
      <polyline fill="#FFFFFF" points="82.4833069,79.9513397 80.0205154,82.4141388 92.5434647,94.9370956 95.0062561,92.4742966 		"/>
      <polyline fill="#FFFFFF" points="53.7849579,51.2529869 51.3221626,53.715786 63.8450737,66.2387009 66.307869,63.7759018 		"/>
    </g>
  </g>
</svg>
