<svg xmlns="http://www.w3.org/2000/svg" xmlns:xlink="http://www.w3.org/1999/xlink" viewBox="2799 -4527 152 152">
  <defs>
    <style>
      .cls-1 {
        fill: #1daafc;
      }

      .cls-2, .cls-3 {
        fill: #fff;
      }

      .cls-2 {
        opacity: 0.5;
      }

      .cls-4 {
        filter: url(#Path_669);
      }
    </style>
    <filter id="Path_669" x="2799" y="-4527" width="152" height="152" filterUnits="userSpaceOnUse">
      <feOffset dy="6" input="SourceAlpha"/>
      <feGaussianBlur stdDeviation="8" result="blur"/>
      <feFlood flood-color="#1daafc" flood-opacity="0.702"/>
      <feComposite operator="in" in2="blur"/>
      <feComposite in="SourceGraphic"/>
    </filter>
  </defs>
  <g id="Group_2827" data-name="Group 2827" transform="translate(2802.122 -4530.381)">
    <g id="Group_2826" data-name="Group 2826">
      <g id="Group_2451" data-name="Group 2451">
        <g id="Group_2825" data-name="Group 2825">
          <g class="cls-4" transform="matrix(1, 0, 0, 1, -2802.12, 4530.38)">
            <path id="Path_669-2" data-name="Path 669" class="cls-1" d="M114.9,115.4c-13.3,13.3-70.776,13.307-84.083,0s-13.2-70.886,0-84.083,70.781-13.3,84.083,0S128.205,102.1,114.9,115.4Z" transform="translate(2802.12 -4530.38)"/>
          </g>
        </g>
      </g>
    </g>

    <g id="Group_2453" data-name="Group 2453">
      <path id="Path_670" data-name="Path 670" class="cls-2" d="M88.843,62.75H86.182V57.429a13.3,13.3,0,0,0-26.607,0V62.75H56.914a5.321,5.321,0,0,0-5.321,5.321V94.679A5.321,5.321,0,0,0,56.914,100H88.843a5.321,5.321,0,0,0,5.321-5.321V68.071a5.321,5.321,0,0,0-5.321-5.321M64.63,57.429a8.248,8.248,0,1,1,16.5,0V62.75H64.63V57.429"/>
      <g id="Group_2452" data-name="Group 2452">
        <path id="Path_671" data-name="Path 671" class="cls-3" d="M83.521,84.036H75.539v7.982H70.218V84.036H62.235V78.714h7.982V70.732h5.321v7.982h7.982Z"/>
      </g>
    </g>
  </g>
</svg>
