<svg xmlns="http://www.w3.org/2000/svg" viewBox="4206 5572 104 104">
  <defs>
    <style>
      .cls-1 {
        fill: #1daafc;
      }

      .cls-2, .cls-3 {
        fill: #fff;
      }

      .cls-2 {
        opacity: 0.5;
      }
    </style>
  </defs>
  <g id="Group_82" data-name="Group 82" transform="translate(3907 4596)">
    <path id="Path_20" data-name="Path 20" class="cls-1" d="M-2.308-2.317c14.605-14.605,67.3-14.66,81.964,0s14.921,67.043,0,81.964-67.39,14.575-81.964,0S-16.913,12.289-2.308-2.317Z" transform="translate(312.251 989.291)"/>
    <g id="flat_icons_distribution" transform="translate(299 976.249)">
      <path id="Path_109" data-name="Path 109" class="cls-2" d="M73.742,39.249l-20.424-8.56-.773,1.845,16.023,6.716H33.316L49.532,28.414l-1.111-1.663-18.7,12.5H28v38H76v-38Z"/>
      <path id="Path_110" data-name="Path 110" class="cls-3" d="M60,62.823a4.286,4.286,0,0,0,4-4.12H55a4.286,4.286,0,0,0,4,4.12v7.454H56V71.2h7v-.926H60Z"/>
      <path id="Path_111" data-name="Path 111" class="cls-3" d="M68,62.2v8.074H65V71.2h7v-.926H69V62.2"/>
      <path id="Path_112" data-name="Path 112" class="cls-3" d="M65.343,62.2l3.328-3.328L72,62.2"/>
      <path id="Path_113" data-name="Path 113" class="cls-2" d="M33.384,39.2,49.532,28.414l-1.111-1.663L29.785,39.2H28V77.249H52V39.2Z"/>
    </g>
  </g>
</svg>
