<svg xmlns="http://www.w3.org/2000/svg" viewBox="4710 5383 104 104">
  <defs>
    <style>
      .cls-1 {
        fill: #1daafc;
      }

      .cls-2, .cls-3 {
        fill: #fff;
      }

      .cls-2 {
        opacity: 0.5;
      }
    </style>
  </defs>
  <g id="Group_76" data-name="Group 76" transform="translate(3907 4596)">
    <path id="Path_18" data-name="Path 18" class="cls-1" d="M-2.308-2.317c14.605-14.605,67.3-14.66,81.964,0s14.921,67.043,0,81.964-67.39,14.575-81.964,0S-16.913,12.289-2.308-2.317Z" transform="translate(816.25 800.291)"/>
    <g id="flat_icons_fine" transform="translate(803.22 787.6)">
      <path id="Path_105" data-name="Path 105" class="cls-2" d="M73.78,28.4h-7V25.9a2.5,2.5,0,1,0-5,0v2.5h-20V25.9a2.5,2.5,0,1,0-5,0v2.5h-7a4,4,0,0,0-4,4v44a4,4,0,0,0,4,4h44a4,4,0,0,0,4-4v-44A4,4,0,0,0,73.78,28.4Z"/>
      <path id="Path_106" data-name="Path 106" class="cls-2" d="M72.53,34.4a2,2,0,0,0-2-2H33.03a2,2,0,0,0-2,2V75.034L34.475,72.4l3.444,2.634L41.364,72.4l3.444,2.634L48.253,72.4,51.7,75.034,55.141,72.4l3.444,2.634L62.03,72.4l3.444,2.634L68.919,72.4l3.444,2.634Z"/>
      <g id="Group_50" data-name="Group 50">
        <path id="Path_107" data-name="Path 107" class="cls-3" d="M51.78,58.967h0a3,3,0,0,1-3-3v-12a3,3,0,0,1,3-3h0a3,3,0,0,1,3,3v12A3,3,0,0,1,51.78,58.967Z"/>
        <path id="Path_108" data-name="Path 108" class="cls-3" d="M51.78,66.467h0a3,3,0,0,1-3-3h0a3,3,0,0,1,3-3h0a3,3,0,0,1,3,3h0A3,3,0,0,1,51.78,66.467Z"/>
      </g>
    </g>
  </g>
</svg>
