<svg xmlns="http://www.w3.org/2000/svg" xmlns:xlink="http://www.w3.org/1999/xlink" viewBox="-2550 3413 118.788 26.651">
  <defs>
    <style>
      .cls-1, .cls-2 {
        fill: #fff;
      }

      .cls-1, .cls-3, .cls-4, .cls-5, .cls-6 {
        fill-rule: evenodd;
      }

      .cls-3 {
        fill: url(#linear-gradient);
      }

      .cls-4 {
        fill: url(#linear-gradient-2);
      }

      .cls-5 {
        fill: url(#linear-gradient-3);
      }

      .cls-6 {
        fill: url(#linear-gradient-4);
      }
    </style>
    <linearGradient id="linear-gradient" x1="0.699" y1="0.989" x2="0.288" y2="-0.048" gradientUnits="objectBoundingBox">
      <stop offset="0" stop-color="#facd8a"/>
      <stop offset="1" stop-color="#f5906c"/>
    </linearGradient>
    <linearGradient id="linear-gradient-2" x1="0.996" y1="-0.014" x2="0.008" y2="1.318" gradientUnits="objectBoundingBox">
      <stop offset="0" stop-color="#e62d38"/>
      <stop offset="1" stop-color="#78459a"/>
    </linearGradient>
    <linearGradient id="linear-gradient-3" x1="0.969" y1="1.008" x2="0.039" y2="-0.308" gradientUnits="objectBoundingBox">
      <stop offset="0" stop-color="#e5eba5"/>
      <stop offset="1" stop-color="#38bbba"/>
    </linearGradient>
    <linearGradient id="linear-gradient-4" x1="0.5" y1="1.428" x2="0.5" y2="-0.428" gradientUnits="objectBoundingBox">
      <stop offset="0" stop-color="#8dd1cd"/>
      <stop offset="1" stop-color="#006f8c"/>
    </linearGradient>
  </defs>
  <g id="Badge_app_store" transform="translate(-2077.154 3061.333)">
    <g id="Group_395" data-name="Group 395">
      <g id="Group_394" data-name="Group 394">
        <path id="Path_459" data-name="Path 459" class="cls-1" d="M-430.38,367.167h-6.135v1.82h4.351c-.215,2.553-2.339,3.641-4.344,3.641a4.784,4.784,0,0,1-4.8-4.847A4.792,4.792,0,0,1-436.5,362.9a4.722,4.722,0,0,1,3.28,1.316l1.275-1.32a6.48,6.48,0,0,0-4.62-1.821,6.8,6.8,0,0,0-6.739,6.67,6.776,6.776,0,0,0,6.836,6.7,5.888,5.888,0,0,0,6.2-6.079,5.46,5.46,0,0,0-.111-1.207Z"/>
        <path id="Path_460" data-name="Path 460" class="cls-1" d="M-425.165,365.848a4.247,4.247,0,0,0-4.321,4.263,4.258,4.258,0,0,0,4.351,4.334,4.217,4.217,0,0,0,4.284-4.284A4.209,4.209,0,0,0-425.165,365.848Zm.019,6.91a2.485,2.485,0,0,1-2.454-2.62,2.481,2.481,0,0,1,2.46-2.6,2.472,2.472,0,0,1,2.411,2.614A2.486,2.486,0,0,1-425.146,372.758Z"/>
        <path id="Path_461" data-name="Path 461" class="cls-1" d="M-415.665,365.848a4.247,4.247,0,0,0-4.321,4.263,4.258,4.258,0,0,0,4.351,4.334,4.217,4.217,0,0,0,4.284-4.284A4.209,4.209,0,0,0-415.665,365.848Zm.019,6.91a2.485,2.485,0,0,1-2.454-2.62,2.481,2.481,0,0,1,2.46-2.6,2.472,2.472,0,0,1,2.411,2.614A2.485,2.485,0,0,1-415.646,372.758Z"/>
        <path id="Path_462" data-name="Path 462" class="cls-1" d="M-404.042,366.84a3.041,3.041,0,0,0-2.318-.986h0a4.258,4.258,0,0,0-4.127,4.295,4.24,4.24,0,0,0,4.087,4.3,2.84,2.84,0,0,0,2.357-1.044v.848a2.157,2.157,0,0,1-2.26,2.371,2.384,2.384,0,0,1-2.2-1.53l-1.652.691a4.136,4.136,0,0,0,3.866,2.531c2.3,0,4.048-1.447,4.048-4.482v-7.724h-1.8Zm-2.176,5.921a2.442,2.442,0,0,1-2.378-2.588,2.477,2.477,0,0,1,2.4-2.635,2.431,2.431,0,0,1,2.3,2.619A2.4,2.4,0,0,1-406.218,372.761Z"/>
        <path id="Path_463" data-name="Path 463" class="cls-1" d="M-390.273,368.362a3.892,3.892,0,0,0-3.575-2.519h0a4.065,4.065,0,0,0-4.009,4.293,4.157,4.157,0,0,0,4.219,4.313,4.361,4.361,0,0,0,3.6-1.886l-1.486-.989a2.406,2.406,0,0,1-2.106,1.183,2.211,2.211,0,0,1-2.108-1.3l5.764-2.392Zm-5.758,1.661a2.388,2.388,0,0,1,2.258-2.527h0a1.714,1.714,0,0,1,1.591.918Z"/>
        <rect id="Rectangle_230" data-name="Rectangle 230" class="cls-2" width="1.893" height="12.67" transform="translate(-400.795 361.524)"/>
        <rect id="Rectangle_231" data-name="Rectangle 231" class="cls-2" width="1.893" height="12.67" transform="translate(-375.411 361.524)"/>
        <path id="Path_464" data-name="Path 464" class="cls-1" d="M-380.871,361.524h-4.58v12.67h1.893v-4.6h2.686a4.048,4.048,0,0,0,4.036-4.036A4.049,4.049,0,0,0-380.871,361.524Zm0,6.179h-2.686v-4.286h2.686a2.154,2.154,0,0,1,2.143,2.143A2.155,2.155,0,0,1-380.871,367.7Z"/>
        <path id="Path_465" data-name="Path 465" class="cls-1" d="M-356.126,365.843l-2.481,5.645-2.481-5.645h-2.067l3.514,8-1.967,4.476h2.068l5.482-12.474Z"/>
        <path id="Path_466" data-name="Path 466" class="cls-1" d="M-371.793,367.22l1.523,1.022c1.1-1.927,4.248-1.484,4.455.582a8.392,8.392,0,0,0-2.9-.338,3.06,3.06,0,0,0-2.9,2.587,3.138,3.138,0,0,0,.647,2.443,3.578,3.578,0,0,0,3.554.76,3.257,3.257,0,0,0,1.645-1.105v1.023h1.893v-4.557C-363.58,364.937-369.539,363.832-371.793,367.22Zm3.928,5.4c-2.189.6-2.734-2.96.52-2.471a8.123,8.123,0,0,1,1.576.378A2.851,2.851,0,0,1-367.865,372.625Z"/>
      </g>
    </g>
    <g id="Group_396" data-name="Group 396">
      <path id="Path_467" data-name="Path 467" class="cls-3" d="M-454.671,368.777l5.693-3.116c.644-.352,1.318-1.251,0-1.97l-5.7-3.108-4.078,4.109Z"/>
      <path id="Path_468" data-name="Path 468" class="cls-4" d="M-458.753,364.692-471.8,377.835a1.774,1.774,0,0,0,1.056-.264l16.07-8.8Z"/>
      <path id="Path_469" data-name="Path 469" class="cls-5" d="M-458.753,364.692l4.078-4.109s-15.158-8.233-16.066-8.728a1.709,1.709,0,0,0-1.132-.151Z"/>
      <path id="Path_470" data-name="Path 470" class="cls-6" d="M-458.753,364.692-471.872,351.7c-.539.123-.978.592-.973,1.53.008,1.524.11,21.792.117,23.072,0,.883.355,1.5,1,1.561Z"/>
    </g>
  </g>
</svg>
