<svg xmlns="http://www.w3.org/2000/svg" viewBox="4036 5383 104 104">
  <defs>
    <style>
      .cls-1 {
        opacity: 0.5;
      }

      .cls-2 {
        fill: #fff;
      }

      .cls-3 {
        fill: #39b6ff;
      }
    </style>
  </defs>
  <g id="Group_80" data-name="Group 80" transform="translate(3907 4596)">
    <g id="flat_icons_phone" transform="translate(-276.717 639.539)">
      <g id="Group_9" data-name="Group 9" class="cls-1" transform="translate(431.717 171.462)">
        <path id="Path_10" data-name="Path 10" class="cls-2" d="M433.373,177.946c-4.721,7.087.925,21.962,13.411,34.448s27.361,18.132,34.448,13.411a2.6,2.6,0,0,0,.727-.495l4.77-4.77a4.067,4.067,0,0,0-.394-5.694l-8.522-8.523a4.067,4.067,0,0,0-5.694-.394l-5.531,5.531a1.733,1.733,0,0,1-2.221.092,68.119,68.119,0,0,1-16.742-16.742,1.733,1.733,0,0,1,.092-2.221l5.531-5.531a4.067,4.067,0,0,0-.394-5.694l-8.523-8.522a4.067,4.067,0,0,0-5.694-.394l-4.77,4.77A2.588,2.588,0,0,0,433.373,177.946Z" transform="translate(-431.717 -171.462)"/>
      </g>
      <g id="Group_10" data-name="Group 10" transform="translate(437.113 171.461)">
        <path id="Path_11" data-name="Path 11" class="cls-2" d="M554.643,272.489a4.067,4.067,0,0,0-5.694-.394l-1.525,1.525,14.61,14.61,1.525-1.525a4.067,4.067,0,0,0-.394-5.694Z" transform="translate(-513.943 -237.627)"/>
        <path id="Path_12" data-name="Path 12" class="cls-2" d="M449.3,172.448l-1.525,1.525,14.61,14.61,1.525-1.525a4.067,4.067,0,0,0-.394-5.694L455,172.842A4.067,4.067,0,0,0,449.3,172.448Z" transform="translate(-447.777 -171.461)"/>
      </g>
      <g id="Group_11" data-name="Group 11" class="cls-1" transform="translate(434.568 173.646)">
        <path id="Path_13" data-name="Path 13" class="cls-2" d="M542.722,277.609l-2.873,2.873,14.61,14.61,2.873-2.873" transform="translate(-506.368 -244.128)"/>
        <path id="Path_14" data-name="Path 14" class="cls-2" d="M443.075,177.962l-2.873,2.873,14.61,14.61,2.873-2.873" transform="translate(-440.202 -177.962)"/>
      </g>
    </g>
    <g id="Group_55" data-name="Group 55" transform="translate(-1397 551)">
      <path id="Path_114" data-name="Path 114" class="cls-3" d="M-2.308-2.317c14.605-14.605,67.3-14.66,81.964,0s14.921,67.043,0,81.964-67.39,14.575-81.964,0S-16.913,12.289-2.308-2.317Z" transform="translate(1539.25 249.291)"/>
      <g id="flat_icons_phone-2" data-name="flat_icons_phone" transform="translate(1118.283 88.539)">
        <g id="Group_52" data-name="Group 52" class="cls-1" transform="translate(431.717 171.462)">
          <path id="Path_115" data-name="Path 115" class="cls-2" d="M433.373,177.946c-4.721,7.087.925,21.962,13.411,34.448s27.361,18.132,34.448,13.411a2.6,2.6,0,0,0,.727-.495l4.77-4.77a4.067,4.067,0,0,0-.394-5.694l-8.522-8.523a4.067,4.067,0,0,0-5.694-.394l-5.531,5.531a1.733,1.733,0,0,1-2.221.092,68.119,68.119,0,0,1-16.742-16.742,1.733,1.733,0,0,1,.092-2.221l5.531-5.531a4.067,4.067,0,0,0-.394-5.694l-8.523-8.522a4.067,4.067,0,0,0-5.694-.394l-4.77,4.77A2.588,2.588,0,0,0,433.373,177.946Z" transform="translate(-431.717 -171.462)"/>
        </g>
        <g id="Group_53" data-name="Group 53" transform="translate(437.113 171.461)">
          <path id="Path_116" data-name="Path 116" class="cls-2" d="M554.643,272.489a4.067,4.067,0,0,0-5.694-.394l-1.525,1.525,14.61,14.61,1.525-1.525a4.067,4.067,0,0,0-.394-5.694Z" transform="translate(-513.943 -237.627)"/>
          <path id="Path_117" data-name="Path 117" class="cls-2" d="M449.3,172.448l-1.525,1.525,14.61,14.61,1.525-1.525a4.067,4.067,0,0,0-.394-5.694L455,172.842A4.067,4.067,0,0,0,449.3,172.448Z" transform="translate(-447.777 -171.461)"/>
        </g>
        <g id="Group_54" data-name="Group 54" class="cls-1" transform="translate(434.568 173.646)">
          <path id="Path_118" data-name="Path 118" class="cls-2" d="M542.722,277.609l-2.873,2.873,14.61,14.61,2.873-2.873" transform="translate(-506.368 -244.128)"/>
          <path id="Path_119" data-name="Path 119" class="cls-2" d="M443.075,177.962l-2.873,2.873,14.61,14.61,2.873-2.873" transform="translate(-440.202 -177.962)"/>
        </g>
      </g>
    </g>
  </g>
</svg>
