<svg xmlns="http://www.w3.org/2000/svg" xmlns:xlink="http://www.w3.org/1999/xlink" viewBox="6114 395 112 112">
  <defs>
    <style>
      .cls-1 {
        clip-path: url(#clip-path);
      }

      .cls-2 {
        fill: #dadee1;
      }
    </style>
    <clipPath id="clip-path">
      <circle id="Ellipse_162" data-name="Ellipse 162" cx="56" cy="56" r="56"/>
    </clipPath>
  </defs>
  <g id="flat_icons_code_tutor2_slide3" transform="translate(6114 395)">
    <g id="Group_2150" data-name="Group 2150">
      <g id="Group_2149" data-name="Group 2149" class="cls-1">
        <g id="Group_2148" data-name="Group 2148">
          <g id="Group_2144" data-name="Group 2144">
            <path id="Path_2268" data-name="Path 2268" class="cls-2" d="M98.715,2.722h4.731V97.336H98.715Z"/>
            <path id="Path_2269" data-name="Path 2269" class="cls-2" d="M89.7,2.722h4.731V97.336H89.7Z"/>
          </g>
          <g id="Group_2147" data-name="Group 2147">
            <g id="Group_2145" data-name="Group 2145">
              <path id="Path_2270" data-name="Path 2270" class="cls-2" d="M18.124,2.722h4.731V97.336H18.124Z"/>
              <path id="Path_2271" data-name="Path 2271" class="cls-2" d="M9.113,2.722h4.731V97.336H9.113Z"/>
            </g>
            <g id="Group_2146" data-name="Group 2146">
              <path id="Path_2272" data-name="Path 2272" class="cls-2" d="M58.42,2.722H63.15V97.336H58.42Z"/>
              <path id="Path_2273" data-name="Path 2273" class="cls-2" d="M49.408,2.722h4.731V97.336H49.408Z"/>
            </g>
          </g>
        </g>
        <path id="Path_2274" data-name="Path 2274" class="cls-2" d="M68.874,2.722H83.98V84.664H68.874V2.722"/>
        <path id="Path_2275" data-name="Path 2275" class="cls-2" d="M28.579,2.722H43.685V84.664H28.579V2.722"/>
      </g>
    </g>
    <g id="Group_2152" data-name="Group 2152">
      <g id="Group_2151" data-name="Group 2151">
        <path id="Path_2276" data-name="Path 2276" class="cls-2" d="M56,4A52,52,0,1,1,4,56,52.059,52.059,0,0,1,56,4m0-4a56,56,0,1,0,56,56A56,56,0,0,0,56,0Z"/>
      </g>
    </g>
  </g>
</svg>
